Task 3 - MRA
…
EXPLANATION Autocorrelation occurs when the residuals are not independent from each other. The null hypothesis of the Durbin Watson test (Ho) is that there is no correlation among residuals, i.e., they are independent. The alternative hypothesis (Ha) is that residuals are autocorrelated.

We see that the resulting p-value is not greater than 0.05, and so we reject the null hypothesis. The D-W statistic for this model of 1.4759 which indicates a less positive correlation in the residuals data. In order to solve this and remove autocorrelation some more missing predictors(IVs) should be added to the regression model.

PROBELM STATEMENT 2

Determine the number of months left for vehicle to become eligible for vehicle scrapping. Cars older than 20 years are eligible for scrapping. A value of 0 indicates that the vehicle is eligble for vehicle scrapping

## [1] 202

## # A tibble: 1,436 x 11
##       Id Model          Price   Age    KM    HP    cc Doors Quarterly_Tax Weight
##    <dbl> <chr>          <dbl> <dbl> <dbl> <dbl> <dbl> <dbl>         <dbl>  <dbl>
##  1     1 TOYOTA Coroll~ 13500   225 46986    90  2000     3           210   1165
##  2     2 TOYOTA Coroll~ 13750   225 72937    90  2000     3           210   1165
##  3     3 TOYOTA Corol~ 13950   226 41711    90  2000     3           210   1165
##  4     4 TOYOTA Coroll~ 14950   228 48000    90  2000     3           210   1165
##  5     5 TOYOTA Coroll~ 13750   232 38500    90  2000     3           210   1170
##  6     6 TOYOTA Coroll~ 12950   234 61000    90  2000     3           210   1170
##  7     7 TOYOTA Corol~ 16900   229 94612    90  2000     3           210   1245
##  8     8 TOYOTA Coroll~ 18600   232 75889    90  2000     3           210   1245
##  9     9 TOYOTA Corol~ 21500   229 19700   192  1800     3           100   1185
## 10    10 TOYOTA Corol~ 12950   225 71138    69  1900     3           185   1105
## # ... with 1,426 more rows, and 1 more variable: MonthsLeft <dbl>

## [1] 1436   11

## # A tibble: 1,436 x 3
##       Id Model                                          MonthsLeft
##    <dbl> <chr>                                               <dbl>
##  1     1 TOYOTA Corolla 2.0 D4D HATCHB TERRA 2/3-Doors          15
##  2     2 TOYOTA Corolla 2.0 D4D HATCHB TERRA 2/3-Doors          15
##  3     3 TOYOTA Corolla 2.0 D4D HATCHB TERRA 2/3-Doors         14
##  4     4 TOYOTA Corolla 2.0 D4D HATCHB TERRA 2/3-Doors          12
##  5     5 TOYOTA Corolla 2.0 D4D HATCHB SOL 2/3-Doors             8
##  6     6 TOYOTA Corolla 2.0 D4D HATCHB SOL 2/3-Doors             6
##  7     7 TOYOTA Corolla 2.0 D4D 90 3DR TERRA 2/3-Doors         11
##  8     8 TOYOTA Corolla 2.0 D4D 90 3DR TERRA 2/3-Doors           8
##  9     9 TOYOTA Corolla 1800 T SPORT VVT I 2/3-Doors           11
## 10    10 TOYOTA Corolla 1.9 D HATCHB TERRA 2/3-Doors           15
## # ... with 1,426 more rows
…
